{
  "error": "no such element",
  "message": "no such element: Unable to locate element: {\"method\":\"xpath\",\"selector\":\"//input[@id=\"name\"]\"}\n  (Session info: chrome=88.0.4324.96)",
  "stacktrace": "#0 0x555ae90d4689 <unknown>\n"
}