{
  "error": "no such element",
  "message": "no such element: Unable to locate element: {\"method\":\"css selector\",\"selector\":\".sp-fancybox-iframe\"}\n  (Session info: chrome=88.0.4324.96)",
  "stacktrace": "#0 0x555ae90d4689 <unknown>\n"
}