2021-06-10T06:20:23.510Z INFO @wdio/local-runner: Run worker command: run
2021-06-10T06:20:23.679Z DEBUG @wdio/local-runner:utils: init remote session
2021-06-10T06:20:23.762Z INFO webdriverio: Initiate new session using the ./protocol-stub protocol
